36268841
53625466
73881181
36463486
21257676
42271724
61315832
55524367
25861711
77374644
85154728
14424355
83128247
26264231
55382726
16866246
51562222
33487644
48246587
73188231
25474546
43238688
18177722
42362141
52248473
72483441
85538154
66153616
63137588
24478173
47838551
15643173
14488321
42555718
84173472
15277156
88518723
34282535
86836612
36536223
22427815
17866783
76263243
81126446
72684121
75733252
32715581
75228375
32615826
13824852
82544232
53426776
56667213
13681871
42218287
23638337
26667221
12577281
81645317
13225835
88888325
44775773
57618131
31476481
62787875
77723138
28354482
82735836
28855348
38837843
38381681
84863876
41231688
37783762
63252381
78866712
61217875
54513451
56844551
31767452
38283544
14818888
82526344
77351255
81663583
38454557
64765517
77564632
18847517
46278228
56714561
61166447
73455617
25155154
17561811
34335283
42772781
23355354
52567633
28878285
11141771
28575148
81176147
72151768
86383658
65564134
82485433
57522276
42731582
36775768
47211562
37113837
84426447
36326416
28284773
18153646
34442583
17885417
24776685
82352681
52148468
16568548
42273585
28178785
21745183
21536123
45814755
38561722
44585432
54566583
32172488
16715576
82888562
46512264
41513458
16386228
61545734
76621112
83521533
22417172
78211785
61651573
28545184
54345855
71661766
12552537
32421431
37457813
36854616
82454872
17436245
21877665
54873117
66621661
34576238
25476364
33871168
86617131
58182318
54562417
38475776
32343186
58263373
38371435
18674878
36446284
64626447
71857825
12872211
84534165
68155357
55662418
73825675
38554456
12816236
72227315
52757244
61464713
66744431
67454321
11724324
54478867
52255148
68466715
31416432
61345418
18335548
57861147
24311751
47662723
76617654
66722214
54752254
76171113
84734284
84637471
36573188
25561484
86831212
27341147
28772377
42133884
25645127
21536224
51862481
63186228
27844524
51861421
42738212
82281417
51342726
18215881
68716833
51455826
44152733
67177414
72478877
46776884
58877711
37767684
51186283
51662246
47534341
12884447
71381274
42586472
71745856
46636375
88355526
26555827
35141521
11636232
14171621
61555875
58144584
88471583
25312464
36836548
75728648
13318831
71657611
48224686
42212257
43288172
16225186
13565846
66256641
13774164
56711273
68528372
73518852
45124546
83638838
68518522
82358831
55413858
26342725
48224462
13856372
76746853
24267781
28443112
57637345
84333253
45554536
68675867
88151417
56755587
22424317
54145382
87612743
85735533
57262858
54513352
81355834
58426834
55145172
23838856
38132861
36825222
53521488
88348478
51161162
15413863
53214133
18615266
33735374
51725457
82332163
17683567
74373434
61484166
58168676
33488264
77227677
21861323
34163114
82352543
55346535
33326811
37672863
57265646
74167538
85418527
85662463
66111124
58526618
11646675
42817837
48157355
55435846
47775768
34416171
56647248
51124264
32376175
68285373
58442664
27712161
46574356
66655746
65525335
53774575
14322524
55488151
56738367
75884386
36545534
42312678
71678414
83514766
45354352
66238875
33521844
77135441
82862358
77248771
84811813
37675437
71272873
78717824
42528615
23158818
51886734
11133757
44772442
38632434
61657684
31846722
27652634
33367766
41344344
73655352
11637261
11756333
21365886
11637212
65851754
86341642
27331834
88143167
27581637
78461847
33226157
14837276
46172883
51833444
37853153
83352578
35671432
58333645
67328227
27266586
56644366
62263573
74854568
67134314
84387853
84188857
25463131
17577581
66383843
33751858
86454743
77464843
45134713
58171476
18817614
77566788
86483616
45823227
76127346
86816672
13647757
21361785
32111432
37725478
66883436
63614121
46187814
18663738
37852146
65468386
88211168
75161358
24232165
48313428
43857341
87521138
46275272
85121537
68765235
53245483
86284281
22557888
82473332
81275681
84582455
83558214
26635246
28671574
36147612
16275453
12656871
27685187
77782785
64121615
55318861
76182563
51613364
48838284
68557363
84341631
47536384
27575388
51453761
31771328
14327458
11878486
32367172
17221113
84852744
43874321
22687184
83685751
77453445
18634384
34151631
53456428
85781877
43875826
37378357
42442771
87813634
17111814
73877166
52837428
74211547
21471144
24885716
26367558
26551826
24752238
15145358
48222371
67354665
26156111
54668367
85135368
61286646
18181744
44835316
11525517
26764273
65136415
28876425
15644172
11564343
15374822
35646278
81156883
16626183
87427172
15468586
51457441
27556133
17543488
41154336
86712411
78672758
77521611
81758818
35525186
81353484
77242314
38431348
81232413
45441881
35314544
24834641
67265556
27311511
35164381
86671433
75888485
42453348
63316814
82617331
82525642
56553654
43854143
47728328
62656565
22128765
11285641
34758248
83817177
27556544
87784347
24882637
42562237
75754872
84117148
43161264
18813862
63352325
85581524
38636365
56852612
26416527
76112516
58886667
34885467
53367482
25314247
68226873
26268111
34725755
84685774
13241754
76746573
85641883
24538821
73841868
23461234
71673538
15188534
34337724
55318343
52737751
37463122
68786511
68213782
12327472
43262278
73358381
33613281
65222775
37324342
81321635
53644513
44222168
11887668
72427775
86118774
11348144
81548816
32263864
85154853
76641552
58644418
47475324
55817384
78638845
25444665
58555753
67625116
18567338
64151882
34415364
67862658
84733846
17124123
83578552
25587312
35183146
34346767
12557352
45361185
58324464
48514241
86515877
47241375
87214647
81485885
76756326
22165475
54566688
47515432
15733487
35334628
38557228
28212161
56146852
43556374
18471286
14581212
22748343
86353355
35143621
57185147
26116832
56757185
81318781
17454268
36343271
18562646
21521277
28246674
78677641
34535283
41285782
58466432
21253731
85667133
37657745
18117361
11317527
47513454
21587153
51618856
83126452
14815868
27637772
43318838
53326463
32523437
78151626
74252845
17366417
26787736
84682352
73241264
68715117
12623312
82428435
78154635
46373735
78375778
14783257
53212275
68218565
34148215
62455676
76428546
31487138
82575416
37112147
57577861
26358228
15854641
53823417
62158722
85316452
63651874
57761158
61184853
74636458
62526722
17437231
67854348
35775565
15685724
16443744
48765427
15612142
27582744
57587884
26161118
78858485
82341533
66568524
22676877
77334836
77851235
31324882
76414475
57767814
26123344
65687867
13823113
46614745
61373872
33374771
75756135
15362324
46173674
55783222
73415275
63424338
54458814
83478264
46121216
72543254
42526141
67816683
64448848
31474447
53265867
56233646
13323233
87225314
18465484
57172565
28814465
12833642
11265512
67815668
51581382
14146464
85422133
18782112
34851786
35854615
36446356
81553665
42827277
31843355
41558271
51368381
11384571
43677287
34473358
67647457
18663446
16286474
12414346
83254615
11361513
37443667
34838533
76777241
75412857
75131428
75382754
22653811
84322738
67787113
72782684
13781577
31378486
84722713
54447476
32188443
17376216
67781768
62272874
83823543
88672321
71481725
42273382
83516815
28256644
18257365
86484333
73746611
56543231
87287732
53211835
57862614
25126246
63656553
75636782
22587476
54125842
53632225
57335135
32757114
72582887
45415368
87135417
61254281
68245233
11112758
13765272
47542427
83554255
12284884
73545864
17348734
57825764
77177544
37532143
82485451
75533678
84376234
34612377
16748272
38676372
73177753
